{
  "permissions": {
    "filename": "permissions",
    "url": "https://pvpcraft.ca/pvpbotperms/?server=",
    "admins": ["85257659694993408"]
  },
  "middleware": {
  },
  "website": {
    "port": 8000,
    "musicUrl": "https://pvpcraft.ca/pvpbotmusic/?server="
  },
  "modules": {
    "warframe": "./modules/warframe.js",
    "permissionsManager": "./modules/permissionsManager.js",
    "moderation": "./modules/moderation.js",
    "utilities": "./modules/utilities.js",
    "minecraft": "./modules/minecraft.js",
    "help": "./modules/help.js",
    "evaluate": "./modules/evaluate.js",
    "pokemon": "./modules/pokemon.js",
    "music": "./modules/music.js",
    "welcome": "./modules/welcome.js",
    "rank": "./modules/rank.js",
    "cleverBot": "./modules/cleverBot.js"
  },
  "default": {
    "prefix": [
      "//"
    ],
    "changeThresh": 1
  },
  "purgeLength": 25,
  "maxPurgeLength": 100
}